Using ggforestplot • ggforestplot
…
These are the linear associations of BMI to 30 blood biomarkers - selected somewhat randomly - along with their 95% confidence intervals.

Now let’s take a closer look at the example dataset used above in order to understand what is the input that ggforestplot::forestplot() expects.

The dataset ggforestplot::df_linear_associations is a tibble() and contains linear associations of blood biomarkers to Body Mass Index (BMI), insulin resistance (log(HOMA-IR)) and fasting glucose as found in A. V. Ahola-Olli et al. (2019). Below are the first 10 rows.

# Linear associations of blood biomarkers to Body Mass Index (BMI), insulin 
# resistance (log(HOMA-IR)) and fasting glucose
ggforestplot::df_linear_associations %>% 
  print()
#> # A tibble: 681 x 5
#>    name          trait    beta      se    pvalue
#>    <chr>         <chr>   <dbl>   <dbl>     <dbl>
#>  1 Isoleucine    BMI    0.339  0.00945 1.11e-281
#>  2 Leucine       BMI    0.343  0.00951 1.25e-285
#>  3 Valine        BMI    0.287  0.00951 7.94e-200
#>  4 Phenylalanine BMI    0.343  0.00862 0.       
#>  5 Tyrosine      BMI    0.261  0.00900 6.65e-185
#>  6 Alanine       BMI    0.179  0.00890 8.62e- 90
#>  7 Glutamine     BMI   -0.134  0.00945 7.68e- 46
#>  8 Glycine       BMI   -0.0296 0.00937 1.56e-  3
#>  9 Histidine     BMI    0.0364 0.00917 7.25e-  5
#> 10 Lactate       BMI    0.131  0.00911 9.20e- 47
#> # … with 671 more rows
…
Another note is that we had to define manually a common axis for all the plots. For that we added the layer ggplot2::coord_cartesian(xlim = c(-0.3, 0.4)) in each forestplot() call. In order to know, a priori, what is the correct common x limits you are looking for, you need to estimate the confidence intervals from the standard errors. In practice however, you may simply run the above piece of code twice, once without setting x limits and, after visual inspection, rerun adding ggplot2::coord_cartesian(xlim = c(xmin, xmax)).

Finally, the implementation above removes x-axis texts and labels for each group. You may want to comment that out depending on how long is your column of forestplots but, at least, keep axis.text.x for only the last plot.

Plotting odds / hazard ratios

The package includes also a second demo dataset from the same paper, ggforestplot::df_logodds_associations, with log odds ratios of blood biomarkers with incident type 2 diabetes. The beta, se and pvalue variables in this set are the result of logistic regression and the additonal n variable reports the cohorts sample size.

#  Odds Ratios of Blood Biomarkers with Incident Type 2 Diabetes
ggforestplot::df_logodds_associations %>% 
  print()
#> # A tibble: 1,135 x 6
#>    name          study            beta     se       pvalue     n
#>    <chr>         <chr>           <dbl>  <dbl>        <dbl> <dbl>
#>  1 Isoleucine    Meta-analysis  0.285  0.0500 0.0000000126 11777
#>  2 Leucine       Meta-analysis  0.286  0.0506 0.0000000165 11783
#>  3 Valine        Meta-analysis  0.182  0.0558 0.00110      11777
#>  4 Phenylalanine Meta-analysis  0.271  0.0538 0.000000453  11782
#>  5 Tyrosine      Meta-analysis  0.168  0.0541 0.00189      11779
#>  6 Alanine       Meta-analysis  0.122  0.0540 0.0237       11784
#>  7 Glutamine     Meta-analysis -0.172  0.0575 0.00284      11744
#>  8 Glycine       Meta-analysis -0.0773 0.0617 0.211        11496
#>  9 Histidine     Meta-analysis  0.0473 0.0553 0.393        11777
#> 10 Lactate       Meta-analysis  0.119  0.0529 0.0245       11781
#> # … with 1,125 more rows
…
