NMR Data Analysis Tutorial • ggforestplot
…
# Read the clinical_data.csv data file
df_clinical_data <- readr::read_csv(
  # Enter the correct location for your file below
  file = "/path/to/file/clinical_data.csv") %>%
  # Rename the identifier column to Sample_id as in the NMR result file
  rename(Sample_id = identifier) %>% 
  # Harmonize the id entries in clinical data with the ids in the NMR data 
  mutate(Sample_id = paste0(
    "ResearchInstitutionProjectLabId_", 
    as.numeric(Sample_id)
  ))

# Inspect the first 10 entries
print(df_clinical_data)
#> # A tibble: 1,887 x 6
#>    Sample_id     gender baseline_age   BMI incident_diabet… age_at_diabetes
#>    <chr>         <chr>         <dbl> <dbl>            <dbl>           <dbl>
#>  1 ResearchInst… male             50  27.2                0              57
#>  2 ResearchInst… female           49  35.1                0              66
#>  3 ResearchInst… female           59  24.6                0              79
#>  4 ResearchInst… male             69  26.3                0              80
#>  5 ResearchInst… female           59  27.9                0              71
#>  6 ResearchInst… male             64  29.0                0              74
#>  7 ResearchInst… female           43  22.2                0              59
#>  8 ResearchInst… female           34  24.7                0              53
#>  9 ResearchInst… female           46  29.3                0              63
#> 10 ResearchInst… male             55  31.7                0              78
#> # … with 1,877 more rows
…
